module github.com/rentup/rentup-backend

go 1.13

require (
	github.com/dgrijalva/jwt-go v3.2.0+incompatible
	github.com/gin-gonic/gin v1.6.1
	go.mongodb.org/mongo-driver v1.3.1
	golang.org/x/crypto v0.0.0-20190530122614-20be4c3c3ed5
)
